PE
…
We will then sort the dataset by cities by median booking price based off the top 100 cities with highest median booking price.

a <- data %>%
    select(City, X..Price)  %>%
    group_by(City) %>%
    summarise(median = median(X..Price)) %>%
    mutate(City = factor(City, City)) %>%
    arrange(desc(median))  %>%
    top_n(100)

## Selecting by median

a

## # A tibble: 102 x 2
##    City            median
##    <fct>            <dbl>
##  1 Indianapolis      650 
##  2 Malibu            304 
##  3 Carmel            300 
##  4 Park City         299 
##  5 Healdsburg        275 
##  6 miami             275 
##  7 Truckee           275 
##  8 Laguna Beach      268.
##  9 Incline Village   259 
## 10 Manhattan Beach   209 
## # ... with 92 more rows
…
